{"items":[{"external_urls":{"spotify":"https://open.spotify.com/artist/6M2wZ9GZgrQXHCFfjv46we"},"followers":{"href":null,"total":23735731},"genres":["dance pop","pop","uk pop"],"href":"https://api.spotify.com/v1/artists/6M2wZ9GZgrQXHCFfjv46we","id":"6M2wZ9GZgrQXHCFfjv46we","images":[{"height":640,"url":"https://i.scdn.co/image/552c454001ba87ea580c1f084482991502562996","width":640},{"height":320,"url":"https://i.scdn.co/image/11c55d5d4dd71860f58c83fdb4217f32f22a0c7b","width":320},{"height":160,"url":"https://i.scdn.co/image/12c917fb893e9c2c37b37f093b30c024e7a76dd5","width":160}],"name":"Dua Lipa","popularity":95,"type":"artist","uri":"spotify:artist:6M2wZ9GZgrQXHCFfjv46we"},{"external_urls":{"spotify":"https://open.spotify.com/artist/3DiDSECUqqY1AuBP8qtaIa"},"followers":{"href":null,"total":8513483},"genres":["hip pop","neo soul","pop","r&b","urban contemporary"],"href":"https://api.spotify.com/v1/artists/3DiDSECUqqY1AuBP8qtaIa","id":"3DiDSECUqqY1AuBP8qtaIa","images":[{"height":640,"url":"https://i.scdn.co/image/f603978d2974c3132fc13202f8555305dbd71710","width":640},{"height":320,"url":"https://i.scdn.co/image/a1f6edee42cee2dbef24aec64068efe51d4d0fc6","width":320},{"height":160,"url":"https://i.scdn.co/image/6d7dc52fb3fe43800cf45bfb6afec5d2b338c17b","width":160}],"name":"Alicia Keys","popularity":83,"type":"artist","uri":"spotify:artist:3DiDSECUqqY1AuBP8qtaIa"},{"external_urls":{"spotify":"https://open.spotify.com/artist/06HL4z0CvFAxyc27GXpf02"},"followers":{"href":null,"total":38187626},"genres":["pop"],"href":"https://api.spotify.com/v1/artists/06HL4z0CvFAxyc27GXpf02","id":"06HL4z0CvFAxyc27GXpf02","images":[{"height":640,"url":"https://i.scdn.co/image/8389f45cac7a58e3ab67a3bdeb5b4a0f9d8f7919","width":640},{"height":320,"url":"https://i.scdn.co/image/ca417f738fca37ef08447d45f9c32e2650f48a86","width":320},{"height":160,"url":"https://i.scdn.co/image/02e96fdf26f6a3b1d435f163831ea50f7d2abb55","width":160}],"name":"Taylor Swift","popularity":97,"type":"artist","uri":"spotify:artist:06HL4z0CvFAxyc27GXpf02"},{"external_urls":{"spotify":"https://open.spotify.com/artist/39vA9YljbnOApXKniLWBZv"},"followers":{"href":null,"total":447633},"genres":["electropop","etherpop","indie folk","indie pop","indie rock"],"href":"https://api.spotify.com/v1/artists/39vA9YljbnOApXKniLWBZv","id":"39vA9YljbnOApXKniLWBZv","images":[{"height":640,"url":"https://i.scdn.co/image/a9488380277cdce61ed6f625e70278c8cff8e4ce","width":640},{"height":320,"url":"https://i.scdn.co/image/91e8fa4ce28ee486d790a3eaebce294e7c6ac7d5","width":320},{"height":160,"url":"https://i.scdn.co/image/9ea9bfbe76357be12ac180927246a9279375afa9","width":160}],"name":"Sylvan Esso","popularity":66,"type":"artist","uri":"spotify:artist:39vA9YljbnOApXKniLWBZv"},{"external_urls":{"spotify":"https://open.spotify.com/artist/21TinSsF5ytwsfdyz5VSVS"},"followers":{"href":null,"total":864134},"genres":["alt z","indie cafe pop","indie pop","pop"],"href":"https://api.spotify.com/v1/artists/21TinSsF5ytwsfdyz5VSVS","id":"21TinSsF5ytwsfdyz5VSVS","images":[{"height":640,"url":"https://i.scdn.co/image/3abc2dccdb85591746e5b6e81a9d33ac360b6c18","width":640},{"height":320,"url":"https://i.scdn.co/image/60cbe8c69c9bef78fc2e60e2e928bc95241e302c","width":320},{"height":160,"url":"https://i.scdn.co/image/564281fc8f8cafc01ad996f0d1d16ba20004528a","width":160}],"name":"dodie","popularity":70,"type":"artist","uri":"spotify:artist:21TinSsF5ytwsfdyz5VSVS"},{"external_urls":{"spotify":"https://open.spotify.com/artist/1CoZyIx7UvdxT5c8UkMzHd"},"followers":{"href":null,"total":2030086},"genres":["dance pop","pop","uk contemporary r&b"],"href":"https://api.spotify.com/v1/artists/1CoZyIx7UvdxT5c8UkMzHd","id":"1CoZyIx7UvdxT5c8UkMzHd","images":[{"height":640,"url":"https://i.scdn.co/image/f60db6f9b7264b835c7de6cdea9ba53e19398b81","width":640},{"height":320,"url":"https://i.scdn.co/image/0bfa8ba50cb3a91cbfec40ef0abee0392220e0e2","width":320},{"height":160,"url":"https://i.scdn.co/image/742a58bf85e15b729e72aeefdf5a3023ab40cfb0","width":160}],"name":"Jorja Smith","popularity":79,"type":"artist","uri":"spotify:artist:1CoZyIx7UvdxT5c8UkMzHd"},{"external_urls":{"spotify":"https://open.spotify.com/artist/2VZNmg4vCnew4Pavo8zDdW"},"followers":{"href":null,"total":640205},"genres":["compositional ambient","post-minimalism","soundtrack"],"href":"https://api.spotify.com/v1/artists/2VZNmg4vCnew4Pavo8zDdW","id":"2VZNmg4vCnew4Pavo8zDdW","images":[{"height":640,"url":"https://i.scdn.co/image/2a4c886b81253d6a93d446ae69b7ed634d7d7700","width":640},{"height":320,"url":"https://i.scdn.co/image/c58b8cc0c7a1c094e0545d1b96d98c88832b1e53","width":320},{"height":160,"url":"https://i.scdn.co/image/e7b1100d9db7754d142b5f4ab784ba0a07d33d97","width":160}],"name":"Max Richter","popularity":78,"type":"artist","uri":"spotify:artist:2VZNmg4vCnew4Pavo8zDdW"},{"external_urls":{"spotify":"https://open.spotify.com/artist/3WrFJ7ztbogyGnTHbHJFl2"},"followers":{"href":null,"total":19057820},"genres":["beatlesque","british invasion","classic rock","merseybeat","psychedelic rock","rock"],"href":"https://api.spotify.com/v1/artists/3WrFJ7ztbogyGnTHbHJFl2","id":"3WrFJ7ztbogyGnTHbHJFl2","images":[{"height":640,"url":"https://i.scdn.co/image/6b2a709752ef9c7aaf0d270344157f6cd2e0f1a7","width":640},{"height":320,"url":"https://i.scdn.co/image/1047bf172446f2a815a99ab0a0395099d621be51","width":320},{"height":160,"url":"https://i.scdn.co/image/0561b59a91a5e904ad2d192747715688d5f05012","width":160}],"name":"The Beatles","popularity":89,"type":"artist","uri":"spotify:artist:3WrFJ7ztbogyGnTHbHJFl2"},{"external_urls":{"spotify":"https://open.spotify.com/artist/6f5yObGSpFj9eJL55GBzrb"},"followers":{"href":null,"total":23264},"genres":["australian indie","australian pop","vapor soul"],"href":"https://api.spotify.com/v1/artists/6f5yObGSpFj9eJL55GBzrb","id":"6f5yObGSpFj9eJL55GBzrb","images":[{"height":640,"url":"https://i.scdn.co/image/6fe69dae65d3ac103779470c3d80e679c0e8b6d5","width":640},{"height":320,"url":"https://i.scdn.co/image/1c54e9b61e3cab126d426307ff591a968a861096","width":320},{"height":160,"url":"https://i.scdn.co/image/cef0d957d80e9687167c46a0b255fef5c31c39c5","width":160}],"name":"LANKS","popularity":51,"type":"artist","uri":"spotify:artist:6f5yObGSpFj9eJL55GBzrb"},{"external_urls":{"spotify":"https://open.spotify.com/artist/2QoU3awHVdcHS8LrZEKvSM"},"followers":{"href":null,"total":580755},"genres":["alternative country","alternative rock","chicago indie","indie pop","indie rock","pop rock","rock","roots rock","stomp and holler"],"href":"https://api.spotify.com/v1/artists/2QoU3awHVdcHS8LrZEKvSM","id":"2QoU3awHVdcHS8LrZEKvSM","images":[{"height":640,"url":"https://i.scdn.co/image/26816116d2e836116ccf596a855160be5657d936","width":640},{"height":320,"url":"https://i.scdn.co/image/cdf5e817af10c070b8995fe27a778b3e2ddaa848","width":320},{"height":160,"url":"https://i.scdn.co/image/91c100ac2b95066501238763f823b80ab03a3776","width":160}],"name":"Wilco","popularity":67,"type":"artist","uri":"spotify:artist:2QoU3awHVdcHS8LrZEKvSM"},{"external_urls":{"spotify":"https://open.spotify.com/artist/0QWrMNukfcVOmgEU0FEDyD"},"followers":{"href":null,"total":391278},"genres":["indie soul","uk alternative pop"],"href":"https://api.spotify.com/v1/artists/0QWrMNukfcVOmgEU0FEDyD","id":"0QWrMNukfcVOmgEU0FEDyD","images":[{"height":640,"url":"https://i.scdn.co/image/852ebd6260da7ca7258008ff4734396e9790c74e","width":640},{"height":320,"url":"https://i.scdn.co/image/2a0b0afb633abd807af7d582a79a44ec50a05ca3","width":320},{"height":160,"url":"https://i.scdn.co/image/98b562e83bb688e788777c0c1fbdc09e44a36059","width":160}],"name":"Jacob Collier","popularity":65,"type":"artist","uri":"spotify:artist:0QWrMNukfcVOmgEU0FEDyD"},{"external_urls":{"spotify":"https://open.spotify.com/artist/4dWtsQvuME6tCWFycaTvO7"},"followers":{"href":null,"total":38363},"genres":["alabama indie","indie cafe pop","indie folk","indiecoustica"],"href":"https://api.spotify.com/v1/artists/4dWtsQvuME6tCWFycaTvO7","id":"4dWtsQvuME6tCWFycaTvO7","images":[{"height":640,"url":"https://i.scdn.co/image/5e3b45d4341813bd56c3401bc411effab4eb04bd","width":640},{"height":320,"url":"https://i.scdn.co/image/460d2db3f498bb460ce85b196161733134fff2d6","width":320},{"height":160,"url":"https://i.scdn.co/image/2a52329fa98b5261089e0032cfbea42739c28f98","width":160}],"name":"The Brook & The Bluff","popularity":58,"type":"artist","uri":"spotify:artist:4dWtsQvuME6tCWFycaTvO7"},{"external_urls":{"spotify":"https://open.spotify.com/artist/3KedxarmBCyFBevnqQHy3P"},"followers":{"href":null,"total":922560},"genres":["alt z","canadian contemporary r&b","canadian pop","dance pop","pop"],"href":"https://api.spotify.com/v1/artists/3KedxarmBCyFBevnqQHy3P","id":"3KedxarmBCyFBevnqQHy3P","images":[{"height":640,"url":"https://i.scdn.co/image/5c3ac07ff50cd4308c38059f5651cd4455c5d724","width":640},{"height":320,"url":"https://i.scdn.co/image/2406f296a94f8280a57e6be60bac3800066badaf","width":320},{"height":160,"url":"https://i.scdn.co/image/8e5b605bdd4fb056ecf1cf30f2d3446c3551d5db","width":160}],"name":"Jessie Reyez","popularity":75,"type":"artist","uri":"spotify:artist:3KedxarmBCyFBevnqQHy3P"},{"external_urls":{"spotify":"https://open.spotify.com/artist/1ybAN3utgdoUL1MUCtH4QM"},"followers":{"href":null,"total":216408},"genres":["art pop","chillwave","denver indie","dream pop","indie pop","indie rock","indie surf","shimmer pop"],"href":"https://api.spotify.com/v1/artists/1ybAN3utgdoUL1MUCtH4QM","id":"1ybAN3utgdoUL1MUCtH4QM","images":[{"height":640,"url":"https://i.scdn.co/image/320d8c892b6eecd7f7eb619c3e899db0be7a32b0","width":640},{"height":320,"url":"https://i.scdn.co/image/1de57ac6dc243b7ae933a3311a8a07f7ecd29412","width":320},{"height":160,"url":"https://i.scdn.co/image/9ee1d54e0f6f61a0620f36bf9616ccd4088747a6","width":160}],"name":"Tennis","popularity":58,"type":"artist","uri":"spotify:artist:1ybAN3utgdoUL1MUCtH4QM"},{"external_urls":{"spotify":"https://open.spotify.com/artist/0ZxZlO7oWCSYMXhehpyMvE"},"followers":{"href":null,"total":409750},"genres":["indie pop","indie poptimism","modern alternative rock","modern rock","pop"],"href":"https://api.spotify.com/v1/artists/0ZxZlO7oWCSYMXhehpyMvE","id":"0ZxZlO7oWCSYMXhehpyMvE","images":[{"height":640,"url":"https://i.scdn.co/image/6d9d1738e2a98425e408d2af6e4d7d73bcf83b35","width":640},{"height":320,"url":"https://i.scdn.co/image/8cdc4701bf10ca35ba7bf4753b34fee803e4e975","width":320},{"height":160,"url":"https://i.scdn.co/image/9aeba7fd8cdb34e7d9173d8e61db545676d17091","width":160}],"name":"COIN","popularity":72,"type":"artist","uri":"spotify:artist:0ZxZlO7oWCSYMXhehpyMvE"},{"external_urls":{"spotify":"https://open.spotify.com/artist/3wcj11K77LjEY1PkEazffa"},"followers":{"href":null,"total":902217},"genres":["afro dancehall","dancehall","nigerian hip hop","nigerian pop"],"href":"https://api.spotify.com/v1/artists/3wcj11K77LjEY1PkEazffa","id":"3wcj11K77LjEY1PkEazffa","images":[{"height":640,"url":"https://i.scdn.co/image/a07409e48f78086bb377e190a25b9e86a9c18bc2","width":640},{"height":320,"url":"https://i.scdn.co/image/8e3e9d6ba75e436bc3f477afbb10f65123b17168","width":320},{"height":160,"url":"https://i.scdn.co/image/7cb40637d9bffe5e48b1253466ae68c70a6dd080","width":160}],"name":"Burna Boy","popularity":82,"type":"artist","uri":"spotify:artist:3wcj11K77LjEY1PkEazffa"},{"external_urls":{"spotify":"https://open.spotify.com/artist/4NZvixzsSefsNiIqXn0NDe"},"followers":{"href":null,"total":739019},"genres":["indie pop"],"href":"https://api.spotify.com/v1/artists/4NZvixzsSefsNiIqXn0NDe","id":"4NZvixzsSefsNiIqXn0NDe","images":[{"height":640,"url":"https://i.scdn.co/image/87254963154387dac4a8c88d39ebe082fedb13f5","width":640},{"height":320,"url":"https://i.scdn.co/image/586839921d7190d318e055a1eda3b83ebedda35d","width":320},{"height":160,"url":"https://i.scdn.co/image/151802f92cc9f0676a769c910e885be9b55c2c98","width":160}],"name":"Maggie Rogers","popularity":72,"type":"artist","uri":"spotify:artist:4NZvixzsSefsNiIqXn0NDe"},{"external_urls":{"spotify":"https://open.spotify.com/artist/5DD5GZd4ElmQTy9NleMvKJ"},"followers":{"href":null,"total":495325},"genres":["alt z","indie pop"],"href":"https://api.spotify.com/v1/artists/5DD5GZd4ElmQTy9NleMvKJ","id":"5DD5GZd4ElmQTy9NleMvKJ","images":[{"height":640,"url":"https://i.scdn.co/image/455d8b67a6332a40eda83f978551dfae4d4954ac","width":640},{"height":320,"url":"https://i.scdn.co/image/60b6036d47ffca11b3f1c8b2b2a332cc715181c8","width":320},{"height":160,"url":"https://i.scdn.co/image/32c2acd94cf8c7ce7913f5c6bc1b4f0d9b51d64a","width":160}],"name":"Tessa Violet","popularity":64,"type":"artist","uri":"spotify:artist:5DD5GZd4ElmQTy9NleMvKJ"},{"external_urls":{"spotify":"https://open.spotify.com/artist/6vWDO969PvNqNYHIOW5v0m"},"followers":{"href":null,"total":26813285},"genres":["dance pop","pop","post-teen pop","r&b"],"href":"https://api.spotify.com/v1/artists/6vWDO969PvNqNYHIOW5v0m","id":"6vWDO969PvNqNYHIOW5v0m","images":[{"height":640,"url":"https://i.scdn.co/image/ad8b0e5a18a5a443a2678768bd73f59833941abc","width":640},{"height":320,"url":"https://i.scdn.co/image/802895be7bc5339087ba36194b0b7307c467df96","width":320},{"height":160,"url":"https://i.scdn.co/image/a932ba0a31bd2807fe76c77b64c680bec2f3d14a","width":160}],"name":"Beyoncé","popularity":89,"type":"artist","uri":"spotify:artist:6vWDO969PvNqNYHIOW5v0m"},{"external_urls":{"spotify":"https://open.spotify.com/artist/6wMr4zKPrrR0UVz08WtUWc"},"followers":{"href":null,"total":600701},"genres":["deep house","south african house","south african pop dance"],"href":"https://api.spotify.com/v1/artists/6wMr4zKPrrR0UVz08WtUWc","id":"6wMr4zKPrrR0UVz08WtUWc","images":[{"height":640,"url":"https://i.scdn.co/image/772fa49d59e17a2df8eacd356d994547ca35d5f8","width":640},{"height":320,"url":"https://i.scdn.co/image/42a5b8ad67cea35e19f06886e84a32d55fd0b1da","width":320},{"height":160,"url":"https://i.scdn.co/image/515a9cc088deb0c862f05ff09dcf72704852c06d","width":160}],"name":"Black Coffee","popularity":68,"type":"artist","uri":"spotify:artist:6wMr4zKPrrR0UVz08WtUWc"}],"total":50,"limit":20,"offset":0,"href":"https://api.spotify.com/v1/me/top/artists","previous":null,"next":"https://api.spotify.com/v1/me/top/artists?limit=20&offset=20"}