{
  "items": [
    {
      "external_urls": {
        "spotify": "https://open.spotify.com/artist/2R57sY41L9XvGPiIgHOaYq"
      },
      "followers": {
        "href": null,
        "total": 1052864
      },
      "genres": [
        "alternative metal",
        "candy pop"
      ],
      "href": "https://api.spotify.com/v1/artists/2R57sY41L9XvGPiIgHOaYq",
      "id": "2R57sY41L9XvGPiIgHOaYq",
      "images": [
        {
          "height": 640,
          "url": "https://i.scdn.co/image/d6287f3462e601ba95253c9514cadf8b234cb4bf",
          "width": 640
        },
        {
          "height": 320,
          "url": "https://i.scdn.co/image/7bac7dcf387a6dd5b14fa9f0e6b21963d017bef0",
          "width": 320
        },
        {
          "height": 160,
          "url": "https://i.scdn.co/image/b02baac54e4aba8de9f51f38164204021c3f78bc",
          "width": 160
        }
      ],
      "name": "The Pretty Reckless",
      "popularity": 69,
      "type": "artist",
      "uri": "spotify:artist:2R57sY41L9XvGPiIgHOaYq"
    },
    {
      "external_urls": {
        "spotify": "https://open.spotify.com/artist/36QJpDe2go2KgaRleHCDTp"
      },
      "followers": {
        "href": null,
        "total": 10426878
      },
      "genres": [
        "album rock",
        "classic rock",
        "hard rock",
        "rock"
      ],
      "href": "https://api.spotify.com/v1/artists/36QJpDe2go2KgaRleHCDTp",
      "id": "36QJpDe2go2KgaRleHCDTp",
      "images": [
        {
          "height": 600,
          "url": "https://i.scdn.co/image/207803ce008388d3427a685254f9de6a8f61dc2e",
          "width": 600
        },
        {
          "height": 200,
          "url": "https://i.scdn.co/image/b0248a44865493e6a03832aa89854ada16ff07a8",
          "width": 200
        },
        {
          "height": 64,
          "url": "https://i.scdn.co/image/16eb3cdae0d824b520ac17710e943a99d3ef6602",
          "width": 64
        }
      ],
      "name": "Led Zeppelin",
      "popularity": 82,
      "type": "artist",
      "uri": "spotify:artist:36QJpDe2go2KgaRleHCDTp"
    },
    {
      "external_urls": {
        "spotify": "https://open.spotify.com/artist/2ye2Wgw4gimLv2eAKyk1NB"
      },
      "followers": {
        "href": null,
        "total": 17144803
      },
      "genres": [
        "hard rock",
        "metal",
        "old school thrash",
        "rock",
        "thrash metal"
      ],
      "href": "https://api.spotify.com/v1/artists/2ye2Wgw4gimLv2eAKyk1NB",
      "id": "2ye2Wgw4gimLv2eAKyk1NB",
      "images": [
        {
          "height": 640,
          "url": "https://i.scdn.co/image/5a06711d7fc48d5e0e3f9a3274ffed3f0af1bd91",
          "width": 640
        },
        {
          "height": 320,
          "url": "https://i.scdn.co/image/0c22030833eb55c14013bb36eb6a429328868c29",
          "width": 320
        },
        {
          "height": 160,
          "url": "https://i.scdn.co/image/c1fb4d88de092b5617e649bd4c406b5cab7d3ddd",
          "width": 160
        }
      ],
      "name": "Metallica",
      "popularity": 86,
      "type": "artist",
      "uri": "spotify:artist:2ye2Wgw4gimLv2eAKyk1NB"
    },
    {
      "external_urls": {
        "spotify": "https://open.spotify.com/artist/22bE4uQ6baNwSHPVcDxLCe"
      },
      "followers": {
        "href": null,
        "total": 9939334
      },
      "genres": [
        "british invasion",
        "classic rock",
        "rock"
      ],
      "href": "https://api.spotify.com/v1/artists/22bE4uQ6baNwSHPVcDxLCe",
      "id": "22bE4uQ6baNwSHPVcDxLCe",
      "images": [
        {
          "height": 640,
          "url": "https://i.scdn.co/image/85d9cb252ab4d8410d31820be40214c59f2597a1",
          "width": 640
        },
        {
          "height": 320,
          "url": "https://i.scdn.co/image/a4c446c1c5beec7ba12861f04cb45490f8addf18",
          "width": 320
        },
        {
          "height": 160,
          "url": "https://i.scdn.co/image/2127bd7c41bfbdb62fe17ebe03a144621545332a",
          "width": 160
        }
      ],
      "name": "The Rolling Stones",
      "popularity": 84,
      "type": "artist",
      "uri": "spotify:artist:22bE4uQ6baNwSHPVcDxLCe"
    },
    {
      "external_urls": {
        "spotify": "https://open.spotify.com/artist/711MCceyCBcFnzjGY4Q7Un"
      },
      "followers": {
        "href": null,
        "total": 18333358
      },
      "genres": [
        "australian rock",
        "hard rock",
        "rock"
      ],
      "href": "https://api.spotify.com/v1/artists/711MCceyCBcFnzjGY4Q7Un",
      "id": "711MCceyCBcFnzjGY4Q7Un",
      "images": [
        {
          "height": 640,
          "url": "https://i.scdn.co/image/52f9c4f83d8642ed80a0bad0317ab940e034de08",
          "width": 640
        },
        {
          "height": 320,
          "url": "https://i.scdn.co/image/64d25927322389160df14e1966849040954b29bb",
          "width": 320
        },
        {
          "height": 160,
          "url": "https://i.scdn.co/image/a7fa12b3b307ac3f172cf1760f385b44bc29e083",
          "width": 160
        }
      ],
      "name": "AC/DC",
      "popularity": 86,
      "type": "artist",
      "uri": "spotify:artist:711MCceyCBcFnzjGY4Q7Un"
    },
    {
      "external_urls": {
        "spotify": "https://open.spotify.com/artist/776Uo845nYHJpNaStv1Ds4"
      },
      "followers": {
        "href": null,
        "total": 4808020
      },
      "genres": [
        "acid rock",
        "album rock",
        "blues rock",
        "classic rock",
        "psychedelic rock",
        "rock"
      ],
      "href": "https://api.spotify.com/v1/artists/776Uo845nYHJpNaStv1Ds4",
      "id": "776Uo845nYHJpNaStv1Ds4",
      "images": [
        {
          "height": 640,
          "url": "https://i.scdn.co/image/14ce65949a921e76421a0164c17f9ebe0a8d76e8",
          "width": 640
        },
        {
          "height": 320,
          "url": "https://i.scdn.co/image/4b558965f7e515f73d68964b7ca364c950a0b815",
          "width": 320
        },
        {
          "height": 160,
          "url": "https://i.scdn.co/image/eb9a1d6414f7693a32c0bd0c4422e0fa26110d2a",
          "width": 160
        }
      ],
      "name": "Jimi Hendrix",
      "popularity": 77,
      "type": "artist",
      "uri": "spotify:artist:776Uo845nYHJpNaStv1Ds4"
    },
    {
      "external_urls": {
        "spotify": "https://open.spotify.com/artist/3WrFJ7ztbogyGnTHbHJFl2"
      },
      "followers": {
        "href": null,
        "total": 18974022
      },
      "genres": [
        "beatlesque",
        "british invasion",
        "classic rock",
        "merseybeat",
        "psychedelic rock",
        "rock"
      ],
      "href": "https://api.spotify.com/v1/artists/3WrFJ7ztbogyGnTHbHJFl2",
      "id": "3WrFJ7ztbogyGnTHbHJFl2",
      "images": [
        {
          "height": 640,
          "url": "https://i.scdn.co/image/6b2a709752ef9c7aaf0d270344157f6cd2e0f1a7",
          "width": 640
        },
        {
          "height": 320,
          "url": "https://i.scdn.co/image/1047bf172446f2a815a99ab0a0395099d621be51",
          "width": 320
        },
        {
          "height": 160,
          "url": "https://i.scdn.co/image/0561b59a91a5e904ad2d192747715688d5f05012",
          "width": 160
        }
      ],
      "name": "The Beatles",
      "popularity": 89,
      "type": "artist",
      "uri": "spotify:artist:3WrFJ7ztbogyGnTHbHJFl2"
    },
    {
      "external_urls": {
        "spotify": "https://open.spotify.com/artist/0k17h0D3J5VfsdmQ1iZtE9"
      },
      "followers": {
        "href": null,
        "total": 14165695
      },
      "genres": [
        "album rock",
        "art rock",
        "classic rock",
        "progressive rock",
        "psychedelic rock",
        "rock",
        "symphonic rock"
      ],
      "href": "https://api.spotify.com/v1/artists/0k17h0D3J5VfsdmQ1iZtE9",
      "id": "0k17h0D3J5VfsdmQ1iZtE9",
      "images": [
        {
          "height": 977,
          "url": "https://i.scdn.co/image/e69f71e2be4b67b82af90fb8e9d805715e0684fa",
          "width": 1000
        },
        {
          "height": 625,
          "url": "https://i.scdn.co/image/d011c95081cd9a329e506abd7ded47535d524a07",
          "width": 640
        },
        {
          "height": 195,
          "url": "https://i.scdn.co/image/f0a39a8a196a87a7236bdcf8a8708f6d5d3547cc",
          "width": 200
        },
        {
          "height": 63,
          "url": "https://i.scdn.co/image/ec1fb7127168dbaa962404031409c5a293b95ec6",
          "width": 64
        }
      ],
      "name": "Pink Floyd",
      "popularity": 84,
      "type": "artist",
      "uri": "spotify:artist:0k17h0D3J5VfsdmQ1iZtE9"
    },
    {
      "external_urls": {
        "spotify": "https://open.spotify.com/artist/6zvul52xwTWzilBZl6BUbT"
      },
      "followers": {
        "href": null,
        "total": 1825722
      },
      "genres": [
        "alternative rock",
        "art rock",
        "boston rock",
        "indie rock",
        "modern rock",
        "permanent wave",
        "rock"
      ],
      "href": "https://api.spotify.com/v1/artists/6zvul52xwTWzilBZl6BUbT",
      "id": "6zvul52xwTWzilBZl6BUbT",
      "images": [
        {
          "height": 640,
          "url": "https://i.scdn.co/image/aac3d8f737e6bc637f094d2e83e039b1cbb362e9",
          "width": 640
        },
        {
          "height": 320,
          "url": "https://i.scdn.co/image/a4b080920a9053b87543a45447642645a887ec17",
          "width": 320
        },
        {
          "height": 160,
          "url": "https://i.scdn.co/image/79ca5327fbd2665659ef0fb0eed16a81cfc1a0ca",
          "width": 160
        }
      ],
      "name": "Pixies",
      "popularity": 73,
      "type": "artist",
      "uri": "spotify:artist:6zvul52xwTWzilBZl6BUbT"
    },
    {
      "external_urls": {
        "spotify": "https://open.spotify.com/artist/2cnMpRsOVqtPMfq7YiFE6K"
      },
      "followers": {
        "href": null,
        "total": 3823443
      },
      "genres": [
        "album rock",
        "classic rock",
        "hard rock",
        "rock"
      ],
      "href": "https://api.spotify.com/v1/artists/2cnMpRsOVqtPMfq7YiFE6K",
      "id": "2cnMpRsOVqtPMfq7YiFE6K",
      "images": [
        {
          "height": 640,
          "url": "https://i.scdn.co/image/5ce847acc4574532b94e038dd4729a9b9a25bc12",
          "width": 640
        },
        {
          "height": 320,
          "url": "https://i.scdn.co/image/34361ec45625b1133f894174fe0fb1b56fdb5a91",
          "width": 320
        },
        {
          "height": 160,
          "url": "https://i.scdn.co/image/672d97c6b9f10bd1bf602e42278633fa492e01bf",
          "width": 160
        }
      ],
      "name": "Van Halen",
      "popularity": 77,
      "type": "artist",
      "uri": "spotify:artist:2cnMpRsOVqtPMfq7YiFE6K"
    },
    {
      "external_urls": {
        "spotify": "https://open.spotify.com/artist/64tNsm6TnZe2zpcMVMOoHL"
      },
      "followers": {
        "href": null,
        "total": 3192293
      },
      "genres": [
        "alternative metal",
        "alternative rock",
        "grunge",
        "hard rock",
        "nu metal",
        "rock"
      ],
      "href": "https://api.spotify.com/v1/artists/64tNsm6TnZe2zpcMVMOoHL",
      "id": "64tNsm6TnZe2zpcMVMOoHL",
      "images": [
        {
          "height": 640,
          "url": "https://i.scdn.co/image/5ccc3b59f6a4f44299a360d9fd3f45b69729654f",
          "width": 640
        },
        {
          "height": 320,
          "url": "https://i.scdn.co/image/01347be774b0b8f4db6830992d405192f04736c8",
          "width": 320
        },
        {
          "height": 160,
          "url": "https://i.scdn.co/image/1673a8ec22aa6d200e003f0eff4deb62a927fffe",
          "width": 160
        }
      ],
      "name": "Alice In Chains",
      "popularity": 75,
      "type": "artist",
      "uri": "spotify:artist:64tNsm6TnZe2zpcMVMOoHL"
    },
    {
      "external_urls": {
        "spotify": "https://open.spotify.com/artist/6mdiAmATAx73kdxrNrnlao"
      },
      "followers": {
        "href": null,
        "total": 6174961
      },
      "genres": [
        "album rock",
        "hard rock",
        "metal",
        "nwobhm",
        "rock"
      ],
      "href": "https://api.spotify.com/v1/artists/6mdiAmATAx73kdxrNrnlao",
      "id": "6mdiAmATAx73kdxrNrnlao",
      "images": [
        {
          "height": 640,
          "url": "https://i.scdn.co/image/6dc0be659ea462b84b9b6485bc20db8dffaa48e2",
          "width": 640
        },
        {
          "height": 320,
          "url": "https://i.scdn.co/image/a6e9ed559db89eaa89de1684eea49547128d598a",
          "width": 320
        },
        {
          "height": 160,
          "url": "https://i.scdn.co/image/0481117ea43da1761cc597b85ef9a026b808420d",
          "width": 160
        }
      ],
      "name": "Iron Maiden",
      "popularity": 77,
      "type": "artist",
      "uri": "spotify:artist:6mdiAmATAx73kdxrNrnlao"
    },
    {
      "external_urls": {
        "spotify": "https://open.spotify.com/artist/7Ey4PD4MYsKc5I2dolUwbH"
      },
      "followers": {
        "href": null,
        "total": 9928891
      },
      "genres": [
        "album rock",
        "classic rock",
        "hard rock",
        "rock"
      ],
      "href": "https://api.spotify.com/v1/artists/7Ey4PD4MYsKc5I2dolUwbH",
      "id": "7Ey4PD4MYsKc5I2dolUwbH",
      "images": [
        {
          "height": 640,
          "url": "https://i.scdn.co/image/a70e0a22056cf078a7d76f5602e59d969ee9f530",
          "width": 640
        },
        {
          "height": 320,
          "url": "https://i.scdn.co/image/9b31b331224806470476d5883a5199ae22aeb00e",
          "width": 320
        },
        {
          "height": 160,
          "url": "https://i.scdn.co/image/8f8095bc2e6615f25526f4e2a2cc73482ab3ec2e",
          "width": 160
        }
      ],
      "name": "Aerosmith",
      "popularity": 81,
      "type": "artist",
      "uri": "spotify:artist:7Ey4PD4MYsKc5I2dolUwbH"
    },
    {
      "external_urls": {
        "spotify": "https://open.spotify.com/artist/5eAWCfyUhZtHHtBdNk56l1"
      },
      "followers": {
        "href": null,
        "total": 7039323
      },
      "genres": [
        "alternative metal",
        "nu metal",
        "rap metal"
      ],
      "href": "https://api.spotify.com/v1/artists/5eAWCfyUhZtHHtBdNk56l1",
      "id": "5eAWCfyUhZtHHtBdNk56l1",
      "images": [
        {
          "height": 640,
          "url": "https://i.scdn.co/image/a89dc04c6faef6658c7a8d02f444775c9024cbb2",
          "width": 640
        },
        {
          "height": 320,
          "url": "https://i.scdn.co/image/e5c92330ef4848ec70d4325a57bec3dfae5f3901",
          "width": 320
        },
        {
          "height": 160,
          "url": "https://i.scdn.co/image/3e756e39f3a3fc9f807aef3c74f6756bca0a19cb",
          "width": 160
        }
      ],
      "name": "System Of A Down",
      "popularity": 82,
      "type": "artist",
      "uri": "spotify:artist:5eAWCfyUhZtHHtBdNk56l1"
    },
    {
      "external_urls": {
        "spotify": "https://open.spotify.com/artist/3qm84nBOXUEQ2vnTfUTTFC"
      },
      "followers": {
        "href": null,
        "total": 19911673
      },
      "genres": [
        "glam metal",
        "hard rock",
        "rock"
      ],
      "href": "https://api.spotify.com/v1/artists/3qm84nBOXUEQ2vnTfUTTFC",
      "id": "3qm84nBOXUEQ2vnTfUTTFC",
      "images": [
        {
          "height": 640,
          "url": "https://i.scdn.co/image/80920b4fc80b6d970e2934eb8abe27014fc60632",
          "width": 640
        },
        {
          "height": 320,
          "url": "https://i.scdn.co/image/18a0c85501ed5b614510a194bb238ac323dcc5a4",
          "width": 320
        },
        {
          "height": 160,
          "url": "https://i.scdn.co/image/7fad9d837d4132de0008da41b98ce3fc29433d7e",
          "width": 160
        }
      ],
      "name": "Guns N' Roses",
      "popularity": 84,
      "type": "artist",
      "uri": "spotify:artist:3qm84nBOXUEQ2vnTfUTTFC"
    },
    {
      "external_urls": {
        "spotify": "https://open.spotify.com/artist/0z4gvV4rjIZ9wHck67ucSV"
      },
      "followers": {
        "href": null,
        "total": 2668310
      },
      "genres": [
        "dance pop"
      ],
      "href": "https://api.spotify.com/v1/artists/0z4gvV4rjIZ9wHck67ucSV",
      "id": "0z4gvV4rjIZ9wHck67ucSV",
      "images": [
        {
          "height": 640,
          "url": "https://i.scdn.co/image/20745ad5adc438c4aec164ca3cc2e04ed3abcb99",
          "width": 640
        },
        {
          "height": 320,
          "url": "https://i.scdn.co/image/a805e46521d16cf5934997e9c35b8f664220c84e",
          "width": 320
        },
        {
          "height": 160,
          "url": "https://i.scdn.co/image/e3594c3f0d23ad61177ae4751b721b81e076f5b4",
          "width": 160
        }
      ],
      "name": "Akon",
      "popularity": 85,
      "type": "artist",
      "uri": "spotify:artist:0z4gvV4rjIZ9wHck67ucSV"
    },
    {
      "external_urls": {
        "spotify": "https://open.spotify.com/artist/0p4nmQO2msCgU4IF37Wi3j"
      },
      "followers": {
        "href": null,
        "total": 6997513
      },
      "genres": [
        "canadian pop",
        "candy pop",
        "dance pop",
        "pop",
        "post-teen pop"
      ],
      "href": "https://api.spotify.com/v1/artists/0p4nmQO2msCgU4IF37Wi3j",
      "id": "0p4nmQO2msCgU4IF37Wi3j",
      "images": [
        {
          "height": 640,
          "url": "https://i.scdn.co/image/be5a4056eb50c465291d6c2334322cc1c7b3a0dc",
          "width": 640
        },
        {
          "height": 320,
          "url": "https://i.scdn.co/image/94ec2e6091591313e91848e641fb85bc11bcf6d7",
          "width": 320
        },
        {
          "height": 160,
          "url": "https://i.scdn.co/image/d63237906fdd5296dc20ddb9d23be2ebb8f20c13",
          "width": 160
        }
      ],
      "name": "Avril Lavigne",
      "popularity": 81,
      "type": "artist",
      "uri": "spotify:artist:0p4nmQO2msCgU4IF37Wi3j"
    },
    {
      "external_urls": {
        "spotify": "https://open.spotify.com/artist/33ScadVnbm2X8kkUqOkC6Z"
      },
      "followers": {
        "href": null,
        "total": 5156687
      },
      "genres": [
        "latin",
        "latin hip hop",
        "puerto rican pop",
        "reggaeton",
        "trap latino",
        "tropical"
      ],
      "href": "https://api.spotify.com/v1/artists/33ScadVnbm2X8kkUqOkC6Z",
      "id": "33ScadVnbm2X8kkUqOkC6Z",
      "images": [
        {
          "height": 640,
          "url": "https://i.scdn.co/image/8a8a34ab3186429a18cd2677c7721eaac595a9f3",
          "width": 640
        },
        {
          "height": 320,
          "url": "https://i.scdn.co/image/73c020183cbc89056094d58777b5835e1125de79",
          "width": 320
        },
        {
          "height": 160,
          "url": "https://i.scdn.co/image/cce5957ad348d1409b08174e3a1d4f98e177ecd1",
          "width": 160
        }
      ],
      "name": "Don Omar",
      "popularity": 84,
      "type": "artist",
      "uri": "spotify:artist:33ScadVnbm2X8kkUqOkC6Z"
    },
    {
      "external_urls": {
        "spotify": "https://open.spotify.com/artist/74XFHRwlV6OrjEM0A2NCMF"
      },
      "followers": {
        "href": null,
        "total": 5846772
      },
      "genres": [
        "candy pop",
        "emo",
        "pixie",
        "pop emo",
        "pop punk"
      ],
      "href": "https://api.spotify.com/v1/artists/74XFHRwlV6OrjEM0A2NCMF",
      "id": "74XFHRwlV6OrjEM0A2NCMF",
      "images": [
        {
          "height": 640,
          "url": "https://i.scdn.co/image/abb33b323f50801c28f2a2409e35004242af40f6",
          "width": 640
        },
        {
          "height": 320,
          "url": "https://i.scdn.co/image/772545b62af460f941ad221f8ddf6c2edce1ef79",
          "width": 320
        },
        {
          "height": 160,
          "url": "https://i.scdn.co/image/75b0bc9cc170e72570ab52669179279393d712c1",
          "width": 160
        }
      ],
      "name": "Paramore",
      "popularity": 81,
      "type": "artist",
      "uri": "spotify:artist:74XFHRwlV6OrjEM0A2NCMF"
    },
    {
      "external_urls": {
        "spotify": "https://open.spotify.com/artist/7Ln80lUS6He07XvHI8qqHH"
      },
      "followers": {
        "href": null,
        "total": 11252783
      },
      "genres": [
        "garage rock",
        "modern rock",
        "permanent wave",
        "rock",
        "sheffield indie"
      ],
      "href": "https://api.spotify.com/v1/artists/7Ln80lUS6He07XvHI8qqHH",
      "id": "7Ln80lUS6He07XvHI8qqHH",
      "images": [
        {
          "height": 640,
          "url": "https://i.scdn.co/image/ed0552e9746ed2bbf04ae4bcb5525700ca31522d",
          "width": 640
        },
        {
          "height": 320,
          "url": "https://i.scdn.co/image/b435e99aa7f1e27db56b6a4dc9df85e5636b22d6",
          "width": 320
        },
        {
          "height": 160,
          "url": "https://i.scdn.co/image/73c4e49abed008fe0c5e4f1437b8b486c7670ecd",
          "width": 160
        }
      ],
      "name": "Arctic Monkeys",
      "popularity": 89,
      "type": "artist",
      "uri": "spotify:artist:7Ln80lUS6He07XvHI8qqHH"
    }
  ],
  "total": 50,
  "limit": 20,
  "offset": 0,
  "previous": null,
  "href": "https://api.spotify.com/v1/me/top/artists",
  "next": "https://api.spotify.com/v1/me/top/artists?limit=20&offset=20"
}