{
  "items": [
    {
      "external_urls": {
        "spotify": "https://open.spotify.com/artist/2qvP9yerCZCS0U1gZU8wYp"
      },
      "followers": {
        "href": null,
        "total": 594993
      },
      "genres": [
        "epicore",
        "soundtrack",
        "video game music"
      ],
      "href": "https://api.spotify.com/v1/artists/2qvP9yerCZCS0U1gZU8wYp",
      "id": "2qvP9yerCZCS0U1gZU8wYp",
      "images": [
        {
          "height": 640,
          "url": "https://i.scdn.co/image/ab67616d0000b273149cf6977defe909fd7d34fd",
          "width": 640
        },
        {
          "height": 300,
          "url": "https://i.scdn.co/image/ab67616d00001e02149cf6977defe909fd7d34fd",
          "width": 300
        },
        {
          "height": 64,
          "url": "https://i.scdn.co/image/ab67616d00004851149cf6977defe909fd7d34fd",
          "width": 64
        }
      ],
      "name": "Two Steps from Hell",
      "popularity": 70,
      "type": "artist",
      "uri": "spotify:artist:2qvP9yerCZCS0U1gZU8wYp"
    },
    {
      "external_urls": {
        "spotify": "https://open.spotify.com/artist/3OKg7YbOIatODzkRIbLJR4"
      },
      "followers": {
        "href": null,
        "total": 1057100
      },
      "genres": [
        "speedrun"
      ],
      "href": "https://api.spotify.com/v1/artists/3OKg7YbOIatODzkRIbLJR4",
      "id": "3OKg7YbOIatODzkRIbLJR4",
      "images": [
        {
          "height": 1000,
          "url": "https://i.scdn.co/image/0b27f8c01fb5103926012ef7bb0b5b7223ebf0d4",
          "width": 1000
        },
        {
          "height": 640,
          "url": "https://i.scdn.co/image/b534e38e0d4d75be63125d10c6215b9966343206",
          "width": 640
        },
        {
          "height": 200,
          "url": "https://i.scdn.co/image/e65882894c3ef8792ac41f0dbbb702419c896eb8",
          "width": 200
        },
        {
          "height": 64,
          "url": "https://i.scdn.co/image/dba10b557f038946c41060b71650b3da1172b937",
          "width": 64
        }
      ],
      "name": "TheFatRat",
      "popularity": 74,
      "type": "artist",
      "uri": "spotify:artist:3OKg7YbOIatODzkRIbLJR4"
    },
    {
      "external_urls": {
        "spotify": "https://open.spotify.com/artist/6BF0bXbsdujMSMeFZBGcBq"
      },
      "followers": {
        "href": null,
        "total": 184707
      },
      "genres": [
        "epicore",
        "soundtrack",
        "video game music"
      ],
      "href": "https://api.spotify.com/v1/artists/6BF0bXbsdujMSMeFZBGcBq",
      "id": "6BF0bXbsdujMSMeFZBGcBq",
      "images": [
        {
          "height": 1000,
          "url": "https://i.scdn.co/image/821040496f31cebb75daec6bedc2c5fd9020b259",
          "width": 1000
        },
        {
          "height": 640,
          "url": "https://i.scdn.co/image/9cc2b715294ec21bebc2629a257d302b98ec9ba6",
          "width": 640
        },
        {
          "height": 200,
          "url": "https://i.scdn.co/image/57215347e85ecb6f0b139a2d6f68254fbc815ee9",
          "width": 200
        },
        {
          "height": 64,
          "url": "https://i.scdn.co/image/ed3103d6db68f4c95b96ccf8f4519546aa1c1739",
          "width": 64
        }
      ],
      "name": "Thomas Bergersen",
      "popularity": 70,
      "type": "artist",
      "uri": "spotify:artist:6BF0bXbsdujMSMeFZBGcBq"
    },
    {
      "external_urls": {
        "spotify": "https://open.spotify.com/artist/3EvzCyNmY3kbUkMawjsndF"
      },
      "followers": {
        "href": null,
        "total": 16148
      },
      "genres": [
        "epicore",
        "video game music"
      ],
      "href": "https://api.spotify.com/v1/artists/3EvzCyNmY3kbUkMawjsndF",
      "id": "3EvzCyNmY3kbUkMawjsndF",
      "images": [
        {
          "height": 640,
          "url": "https://i.scdn.co/image/ab67616d0000b273b39c2cbabff56ac3c55b6f4e",
          "width": 640
        },
        {
          "height": 300,
          "url": "https://i.scdn.co/image/ab67616d00001e02b39c2cbabff56ac3c55b6f4e",
          "width": 300
        },
        {
          "height": 64,
          "url": "https://i.scdn.co/image/ab67616d00004851b39c2cbabff56ac3c55b6f4e",
          "width": 64
        }
      ],
      "name": "Nick Phoenix",
      "popularity": 55,
      "type": "artist",
      "uri": "spotify:artist:3EvzCyNmY3kbUkMawjsndF"
    },
    {
      "external_urls": {
        "spotify": "https://open.spotify.com/artist/6yJCxee7QumYr820xdIsjo"
      },
      "followers": {
        "href": null,
        "total": 2561334
      },
      "genres": [
        "contemporary country",
        "country",
        "country road",
        "modern country rock"
      ],
      "href": "https://api.spotify.com/v1/artists/6yJCxee7QumYr820xdIsjo",
      "id": "6yJCxee7QumYr820xdIsjo",
      "images": [
        {
          "height": 640,
          "url": "https://i.scdn.co/image/c229d59dead54557194c6c3961e5290639ffa00c",
          "width": 640
        },
        {
          "height": 320,
          "url": "https://i.scdn.co/image/df144f28d98e9cb4655042f2fb30372b23986222",
          "width": 320
        },
        {
          "height": 160,
          "url": "https://i.scdn.co/image/f5b8a49b618e48d6306fd3ffae9ea369080d7d7d",
          "width": 160
        }
      ],
      "name": "Zac Brown Band",
      "popularity": 77,
      "type": "artist",
      "uri": "spotify:artist:6yJCxee7QumYr820xdIsjo"
    },
    {
      "external_urls": {
        "spotify": "https://open.spotify.com/artist/30cKuCL2eREKcQ8NqyXUo7"
      },
      "followers": {
        "href": null,
        "total": 15957
      },
      "genres": [],
      "href": "https://api.spotify.com/v1/artists/30cKuCL2eREKcQ8NqyXUo7",
      "id": "30cKuCL2eREKcQ8NqyXUo7",
      "images": [
        {
          "height": 563,
          "url": "https://i.scdn.co/image/019de8f37893f09191af70cda670ab2702bd9b89",
          "width": 1000
        },
        {
          "height": 360,
          "url": "https://i.scdn.co/image/c5dc49dd941b0dc9443289171212dc66ece8d179",
          "width": 640
        },
        {
          "height": 113,
          "url": "https://i.scdn.co/image/de7110738c1ff8b96d85bfd24490c9f7b5233b27",
          "width": 200
        },
        {
          "height": 36,
          "url": "https://i.scdn.co/image/6349628da7cbb76d64a20ba98fb1293d1340c774",
          "width": 64
        }
      ],
      "name": "Milkman",
      "popularity": 42,
      "type": "artist",
      "uri": "spotify:artist:30cKuCL2eREKcQ8NqyXUo7"
    },
    {
      "external_urls": {
        "spotify": "https://open.spotify.com/artist/7dGJo4pcD2V6oG8kP0tJRR"
      },
      "followers": {
        "href": null,
        "total": 42704717
      },
      "genres": [
        "detroit hip hop",
        "hip hop",
        "rap"
      ],
      "href": "https://api.spotify.com/v1/artists/7dGJo4pcD2V6oG8kP0tJRR",
      "id": "7dGJo4pcD2V6oG8kP0tJRR",
      "images": [
        {
          "height": 640,
          "url": "https://i.scdn.co/image/56f4762485066b4ef867b96e16775f2b5b4db277",
          "width": 640
        },
        {
          "height": 320,
          "url": "https://i.scdn.co/image/ad64a7fbc24b31cd84455a1aef34758b94246352",
          "width": 320
        },
        {
          "height": 160,
          "url": "https://i.scdn.co/image/6432e1be8495593f136ad98de6135bb0640ff936",
          "width": 160
        }
      ],
      "name": "Eminem",
      "popularity": 95,
      "type": "artist",
      "uri": "spotify:artist:7dGJo4pcD2V6oG8kP0tJRR"
    },
    {
      "external_urls": {
        "spotify": "https://open.spotify.com/artist/6zFYqv1mOsgBRQbae3JJ9e"
      },
      "followers": {
        "href": null,
        "total": 3340673
      },
      "genres": [
        "classic rock",
        "folk rock",
        "mellow gold",
        "piano rock",
        "rock",
        "singer-songwriter",
        "soft rock"
      ],
      "href": "https://api.spotify.com/v1/artists/6zFYqv1mOsgBRQbae3JJ9e",
      "id": "6zFYqv1mOsgBRQbae3JJ9e",
      "images": [
        {
          "height": 640,
          "url": "https://i.scdn.co/image/0488b8c02bc9249ddf858e359dee66f206b1eb4f",
          "width": 640
        },
        {
          "height": 320,
          "url": "https://i.scdn.co/image/464553289ce589439605b80d545055a75b41b5f4",
          "width": 320
        },
        {
          "height": 160,
          "url": "https://i.scdn.co/image/2aff697bef6a76075e05ab6dd155e91304820aeb",
          "width": 160
        }
      ],
      "name": "Billy Joel",
      "popularity": 81,
      "type": "artist",
      "uri": "spotify:artist:6zFYqv1mOsgBRQbae3JJ9e"
    },
    {
      "external_urls": {
        "spotify": "https://open.spotify.com/artist/4lxfqrEsLX6N1N4OCSkILp"
      },
      "followers": {
        "href": null,
        "total": 3534793
      },
      "genres": [
        "mellow gold",
        "rock drums",
        "soft rock"
      ],
      "href": "https://api.spotify.com/v1/artists/4lxfqrEsLX6N1N4OCSkILp",
      "id": "4lxfqrEsLX6N1N4OCSkILp",
      "images": [
        {
          "height": 1333,
          "url": "https://i.scdn.co/image/31fbe64783eb5d493161640bd599dceafc615c6d",
          "width": 1000
        },
        {
          "height": 853,
          "url": "https://i.scdn.co/image/f5b1b588936c53348efe5526caf65852a0bd1d36",
          "width": 640
        },
        {
          "height": 267,
          "url": "https://i.scdn.co/image/ccd188b7082ce425d61640c11ea715d23dbce92a",
          "width": 200
        },
        {
          "height": 85,
          "url": "https://i.scdn.co/image/7900732380c7303c222bc98f68e1b9fba3922439",
          "width": 64
        }
      ],
      "name": "Phil Collins",
      "popularity": 81,
      "type": "artist",
      "uri": "spotify:artist:4lxfqrEsLX6N1N4OCSkILp"
    },
    {
      "external_urls": {
        "spotify": "https://open.spotify.com/artist/67ea9eGLXYMsO2eYQRui3w"
      },
      "followers": {
        "href": null,
        "total": 3859363
      },
      "genres": [
        "album rock",
        "art rock",
        "blues rock",
        "british invasion",
        "classic rock",
        "folk rock",
        "hard rock",
        "mellow gold",
        "rock",
        "roots rock"
      ],
      "href": "https://api.spotify.com/v1/artists/67ea9eGLXYMsO2eYQRui3w",
      "id": "67ea9eGLXYMsO2eYQRui3w",
      "images": [
        {
          "height": 1000,
          "url": "https://i.scdn.co/image/9cd709cabb4a614b4f1dd9ec256a5f30e21f0150",
          "width": 1000
        },
        {
          "height": 640,
          "url": "https://i.scdn.co/image/e70c8cbc5eb682b35da8dbc90c5c3631f4df9e23",
          "width": 640
        },
        {
          "height": 200,
          "url": "https://i.scdn.co/image/4d7d0709054a22a2f67ecc139fec046b1f4cc880",
          "width": 200
        },
        {
          "height": 64,
          "url": "https://i.scdn.co/image/d2607544c5d6ad7a77571f704621a038a947243a",
          "width": 64
        }
      ],
      "name": "The Who",
      "popularity": 75,
      "type": "artist",
      "uri": "spotify:artist:67ea9eGLXYMsO2eYQRui3w"
    },
    {
      "external_urls": {
        "spotify": "https://open.spotify.com/artist/3YQKmKGau1PzlVlkL1iodx"
      },
      "followers": {
        "href": null,
        "total": 19883685
      },
      "genres": [
        "modern rock",
        "rock"
      ],
      "href": "https://api.spotify.com/v1/artists/3YQKmKGau1PzlVlkL1iodx",
      "id": "3YQKmKGau1PzlVlkL1iodx",
      "images": [
        {
          "height": 640,
          "url": "https://i.scdn.co/image/19e8f3bc875b7a4b9cf0041a5ee696c4be5478aa",
          "width": 640
        },
        {
          "height": 320,
          "url": "https://i.scdn.co/image/99fb27e4f2caad57e4bf5ee55676c3e352fee3c8",
          "width": 320
        },
        {
          "height": 160,
          "url": "https://i.scdn.co/image/f6a0cfdea725ca2a58de787ca5f1b82d0c516be3",
          "width": 160
        }
      ],
      "name": "Twenty One Pilots",
      "popularity": 86,
      "type": "artist",
      "uri": "spotify:artist:3YQKmKGau1PzlVlkL1iodx"
    },
    {
      "external_urls": {
        "spotify": "https://open.spotify.com/artist/3MN3dRQvZWIRj0wTpY5QnY"
      },
      "followers": {
        "href": null,
        "total": 1095
      },
      "genres": [
        "chill guitar",
        "focus"
      ],
      "href": "https://api.spotify.com/v1/artists/3MN3dRQvZWIRj0wTpY5QnY",
      "id": "3MN3dRQvZWIRj0wTpY5QnY",
      "images": [
        {
          "height": 640,
          "url": "https://i.scdn.co/image/91a33274b5c8ddd7ec45feaa00127eafb906288c",
          "width": 640
        },
        {
          "height": 320,
          "url": "https://i.scdn.co/image/3337ff53ac7dd312ae638986a2e61c027fce8d7c",
          "width": 320
        },
        {
          "height": 160,
          "url": "https://i.scdn.co/image/de6fe8e6dc36930591506cf00381e88089f5c1f0",
          "width": 160
        }
      ],
      "name": "John Hanks",
      "popularity": 52,
      "type": "artist",
      "uri": "spotify:artist:3MN3dRQvZWIRj0wTpY5QnY"
    },
    {
      "external_urls": {
        "spotify": "https://open.spotify.com/artist/43F9YqxW89cDIMwYv7Ruoy"
      },
      "followers": {
        "href": null,
        "total": 3977
      },
      "genres": [
        "chill guitar",
        "focus"
      ],
      "href": "https://api.spotify.com/v1/artists/43F9YqxW89cDIMwYv7Ruoy",
      "id": "43F9YqxW89cDIMwYv7Ruoy",
      "images": [
        {
          "height": 640,
          "url": "https://i.scdn.co/image/ab67616d0000b2736be404cf6891b8ad2d0d8e31",
          "width": 640
        },
        {
          "height": 300,
          "url": "https://i.scdn.co/image/ab67616d00001e026be404cf6891b8ad2d0d8e31",
          "width": 300
        },
        {
          "height": 64,
          "url": "https://i.scdn.co/image/ab67616d000048516be404cf6891b8ad2d0d8e31",
          "width": 64
        }
      ],
      "name": "Sergei Baronin",
      "popularity": 54,
      "type": "artist",
      "uri": "spotify:artist:43F9YqxW89cDIMwYv7Ruoy"
    },
    {
      "external_urls": {
        "spotify": "https://open.spotify.com/artist/0BvkDsjIUla7X0k6CSWh1I"
      },
      "followers": {
        "href": null,
        "total": 6254693
      },
      "genres": [
        "contemporary country",
        "country",
        "country road"
      ],
      "href": "https://api.spotify.com/v1/artists/0BvkDsjIUla7X0k6CSWh1I",
      "id": "0BvkDsjIUla7X0k6CSWh1I",
      "images": [
        {
          "height": 640,
          "url": "https://i.scdn.co/image/7d0807400f9076bd4c16d05ccec24c4ae1675e16",
          "width": 640
        },
        {
          "height": 320,
          "url": "https://i.scdn.co/image/0e8ef130f7c00f720219f1a6bc391d578667bdce",
          "width": 320
        },
        {
          "height": 160,
          "url": "https://i.scdn.co/image/cdc356e89f147d2c39ff24fbf8b1d1b53e734e70",
          "width": 160
        }
      ],
      "name": "Luke Bryan",
      "popularity": 80,
      "type": "artist",
      "uri": "spotify:artist:0BvkDsjIUla7X0k6CSWh1I"
    },
    {
      "external_urls": {
        "spotify": "https://open.spotify.com/artist/7EoXdWfRaaIxcEqlXjKmJ2"
      },
      "followers": {
        "href": null,
        "total": 3084
      },
      "genres": [
        "chill guitar",
        "focus"
      ],
      "href": "https://api.spotify.com/v1/artists/7EoXdWfRaaIxcEqlXjKmJ2",
      "id": "7EoXdWfRaaIxcEqlXjKmJ2",
      "images": [
        {
          "height": 640,
          "url": "https://i.scdn.co/image/ab67616d0000b273bb82752c13f2b0ffcdb74389",
          "width": 640
        },
        {
          "height": 300,
          "url": "https://i.scdn.co/image/ab67616d00001e02bb82752c13f2b0ffcdb74389",
          "width": 300
        },
        {
          "height": 64,
          "url": "https://i.scdn.co/image/ab67616d00004851bb82752c13f2b0ffcdb74389",
          "width": 64
        }
      ],
      "name": "Miranda Boumedin",
      "popularity": 53,
      "type": "artist",
      "uri": "spotify:artist:7EoXdWfRaaIxcEqlXjKmJ2"
    },
    {
      "external_urls": {
        "spotify": "https://open.spotify.com/artist/06HL4z0CvFAxyc27GXpf02"
      },
      "followers": {
        "href": null,
        "total": 37933141
      },
      "genres": [
        "pop",
        "pop dance"
      ],
      "href": "https://api.spotify.com/v1/artists/06HL4z0CvFAxyc27GXpf02",
      "id": "06HL4z0CvFAxyc27GXpf02",
      "images": [
        {
          "height": 640,
          "url": "https://i.scdn.co/image/8389f45cac7a58e3ab67a3bdeb5b4a0f9d8f7919",
          "width": 640
        },
        {
          "height": 320,
          "url": "https://i.scdn.co/image/ca417f738fca37ef08447d45f9c32e2650f48a86",
          "width": 320
        },
        {
          "height": 160,
          "url": "https://i.scdn.co/image/02e96fdf26f6a3b1d435f163831ea50f7d2abb55",
          "width": 160
        }
      ],
      "name": "Taylor Swift",
      "popularity": 98,
      "type": "artist",
      "uri": "spotify:artist:06HL4z0CvFAxyc27GXpf02"
    },
    {
      "external_urls": {
        "spotify": "https://open.spotify.com/artist/60B2BBjn6yEQEl8XLYMZU2"
      },
      "followers": {
        "href": null,
        "total": 23755
      },
      "genres": [
        "video game music"
      ],
      "href": "https://api.spotify.com/v1/artists/60B2BBjn6yEQEl8XLYMZU2",
      "id": "60B2BBjn6yEQEl8XLYMZU2",
      "images": [
        {
          "height": 640,
          "url": "https://i.scdn.co/image/be3283ac11f81c1efe260a0059e355b3c991dd87",
          "width": 640
        },
        {
          "height": 320,
          "url": "https://i.scdn.co/image/937954ae7366a8013dec68437c6ba7f54a3122b8",
          "width": 320
        },
        {
          "height": 160,
          "url": "https://i.scdn.co/image/c33d121c4534510dd5cb7279484f258317428c19",
          "width": 160
        }
      ],
      "name": "Christopher Tin",
      "popularity": 50,
      "type": "artist",
      "uri": "spotify:artist:60B2BBjn6yEQEl8XLYMZU2"
    },
    {
      "external_urls": {
        "spotify": "https://open.spotify.com/artist/77t00lrU1uk65snqAdoPnt"
      },
      "followers": {
        "href": null,
        "total": 944814
      },
      "genres": [
        "hands up",
        "nightcore"
      ],
      "href": "https://api.spotify.com/v1/artists/77t00lrU1uk65snqAdoPnt",
      "id": "77t00lrU1uk65snqAdoPnt",
      "images": [
        {
          "height": 640,
          "url": "https://i.scdn.co/image/1c132e97b60af0a5d9b79f1b78d29a7a9e26402f",
          "width": 640
        },
        {
          "height": 320,
          "url": "https://i.scdn.co/image/4a9caf6a61b68b90dbce22c6b118f84d9192b6cb",
          "width": 320
        },
        {
          "height": 160,
          "url": "https://i.scdn.co/image/8665ad6a875c403979f22e6a607720f24c3c3514",
          "width": 160
        }
      ],
      "name": "Nightcore",
      "popularity": 60,
      "type": "artist",
      "uri": "spotify:artist:77t00lrU1uk65snqAdoPnt"
    },
    {
      "external_urls": {
        "spotify": "https://open.spotify.com/artist/4Nhls1HQdF7znMBAq7w2z4"
      },
      "followers": {
        "href": null,
        "total": 12614
      },
      "genres": [
        "broadway",
        "show tunes"
      ],
      "href": "https://api.spotify.com/v1/artists/4Nhls1HQdF7znMBAq7w2z4",
      "id": "4Nhls1HQdF7znMBAq7w2z4",
      "images": [
        {
          "height": 640,
          "url": "https://i.scdn.co/image/ab67616d0000b2738548c043e27f144b881df6f3",
          "width": 640
        },
        {
          "height": 300,
          "url": "https://i.scdn.co/image/ab67616d00001e028548c043e27f144b881df6f3",
          "width": 300
        },
        {
          "height": 64,
          "url": "https://i.scdn.co/image/ab67616d000048518548c043e27f144b881df6f3",
          "width": 64
        }
      ],
      "name": "Original Cast of Hadestown",
      "popularity": 44,
      "type": "artist",
      "uri": "spotify:artist:4Nhls1HQdF7znMBAq7w2z4"
    },
    {
      "external_urls": {
        "spotify": "https://open.spotify.com/artist/5sM4cZ9MHihs0tbmkiE9n8"
      },
      "followers": {
        "href": null,
        "total": 54589
      },
      "genres": [
        "electro swing",
        "nu jazz"
      ],
      "href": "https://api.spotify.com/v1/artists/5sM4cZ9MHihs0tbmkiE9n8",
      "id": "5sM4cZ9MHihs0tbmkiE9n8",
      "images": [
        {
          "height": 640,
          "url": "https://i.scdn.co/image/1056d7c9b16df867e635245576b2e5ecad378ffc",
          "width": 640
        },
        {
          "height": 320,
          "url": "https://i.scdn.co/image/5d11c0cb359628051ac3e6c8d80a161a08dbb61c",
          "width": 320
        },
        {
          "height": 160,
          "url": "https://i.scdn.co/image/36969b0c896dc5ce24d3afa04a287049d7ea6f9c",
          "width": 160
        }
      ],
      "name": "Jamie Berry",
      "popularity": 55,
      "type": "artist",
      "uri": "spotify:artist:5sM4cZ9MHihs0tbmkiE9n8"
    }
  ],
  "total": 50,
  "limit": 20,
  "offset": 0,
  "href": "https://api.spotify.com/v1/me/top/artists",
  "previous": null,
  "next": "https://api.spotify.com/v1/me/top/artists?limit=20&offset=20"
}