{"items":[{"external_urls":{"spotify":"https://open.spotify.com/artist/52IlucwpJ6UPNEv2myDqNx"},"followers":{"href":null,"total":149},"genres":[],"href":"https://api.spotify.com/v1/artists/52IlucwpJ6UPNEv2myDqNx","id":"52IlucwpJ6UPNEv2myDqNx","images":[{"height":640,"url":"https://i.scdn.co/image/7efb11a79da5f93310856f4011826f8f7509842f","width":640},{"height":320,"url":"https://i.scdn.co/image/16f660b3ac5d9383712d4163a45b58a098447d6d","width":320},{"height":160,"url":"https://i.scdn.co/image/6a63bfa5442cbb61747780a8622d10f7e104fece","width":160}],"name":"koozie","popularity":14,"type":"artist","uri":"spotify:artist:52IlucwpJ6UPNEv2myDqNx"},{"external_urls":{"spotify":"https://open.spotify.com/artist/1DLKitfb8fshL0DtCecRpY"},"followers":{"href":null,"total":158987},"genres":["social media pop"],"href":"https://api.spotify.com/v1/artists/1DLKitfb8fshL0DtCecRpY","id":"1DLKitfb8fshL0DtCecRpY","images":[{"height":640,"url":"https://i.scdn.co/image/6c479b5b273a752cabc3e438fc4e58d66c280685","width":640},{"height":320,"url":"https://i.scdn.co/image/fcb22652e41f4375aa3f1fbd285b0a5369bc3d31","width":320},{"height":160,"url":"https://i.scdn.co/image/205eac8b24795ea7eb8fba7f0e1e024fdd109573","width":160}],"name":"Shawn Wasabi","popularity":59,"type":"artist","uri":"spotify:artist:1DLKitfb8fshL0DtCecRpY"},{"external_urls":{"spotify":"https://open.spotify.com/artist/7yntSJ6uojO3z6GFUVwhAW"},"followers":{"href":null,"total":1488036},"genres":["viral rap"],"href":"https://api.spotify.com/v1/artists/7yntSJ6uojO3z6GFUVwhAW","id":"7yntSJ6uojO3z6GFUVwhAW","images":[{"height":640,"url":"https://i.scdn.co/image/a6f321b07f985820a3e26350248d6cfca8868bdd","width":640},{"height":320,"url":"https://i.scdn.co/image/8086bc5190cb3d7978f4fd16cac3648431c1d246","width":320},{"height":160,"url":"https://i.scdn.co/image/58d8d32e0e2867fa5db6017b275a1f42d4508823","width":160}],"name":"CORPSE","popularity":80,"type":"artist","uri":"spotify:artist:7yntSJ6uojO3z6GFUVwhAW"},{"external_urls":{"spotify":"https://open.spotify.com/artist/072QZuLtCqlAesYnOGY7lN"},"followers":{"href":null,"total":361514},"genres":["meme rap"],"href":"https://api.spotify.com/v1/artists/072QZuLtCqlAesYnOGY7lN","id":"072QZuLtCqlAesYnOGY7lN","images":[{"height":640,"url":"https://i.scdn.co/image/9c17414957830053a8edc62eae80fa4f7e2d69d4","width":640},{"height":320,"url":"https://i.scdn.co/image/a910c790ef4e9a5bd7f22859a64b545651e02743","width":320},{"height":160,"url":"https://i.scdn.co/image/fa9b1ecab8e84b1e593e7492750b5984c85891e8","width":160}],"name":"Tiny Meat Gang","popularity":64,"type":"artist","uri":"spotify:artist:072QZuLtCqlAesYnOGY7lN"},{"external_urls":{"spotify":"https://open.spotify.com/artist/2NNTIDSDRlsf4lzYW9fpKm"},"followers":{"href":null,"total":58},"genres":[],"href":"https://api.spotify.com/v1/artists/2NNTIDSDRlsf4lzYW9fpKm","id":"2NNTIDSDRlsf4lzYW9fpKm","images":[{"height":640,"url":"https://i.scdn.co/image/0e888abf5baf12332a38b78d51794a2bba95a73b","width":640},{"height":320,"url":"https://i.scdn.co/image/8353f656d4d6ae1ae5fe27239e550e9c35ba973f","width":320},{"height":160,"url":"https://i.scdn.co/image/d9c2871a47a2819bee274152a2ccdeb876c595b1","width":160}],"name":"Ladji Mouflet","popularity":0,"type":"artist","uri":"spotify:artist:2NNTIDSDRlsf4lzYW9fpKm"},{"external_urls":{"spotify":"https://open.spotify.com/artist/3dz0NnIZhtKKeXZxLOxCam"},"followers":{"href":null,"total":871346},"genres":["brostep","complextro","edm","electro house","future bass","moombahton","pop dance","progressive electro house"],"href":"https://api.spotify.com/v1/artists/3dz0NnIZhtKKeXZxLOxCam","id":"3dz0NnIZhtKKeXZxLOxCam","images":[{"height":640,"url":"https://i.scdn.co/image/efe8eaa8aae32d3ee4948bb59fd044742b4bf4bb","width":640},{"height":320,"url":"https://i.scdn.co/image/3c172c3810cd65ad204ffe07e7983e48e929f229","width":320},{"height":160,"url":"https://i.scdn.co/image/acc9781b4b49e083a432a3f305a16543b3eedf7f","width":160}],"name":"Porter Robinson","popularity":70,"type":"artist","uri":"spotify:artist:3dz0NnIZhtKKeXZxLOxCam"},{"external_urls":{"spotify":"https://open.spotify.com/artist/55ZGP7wiI7sIfU36CTeBzT"},"followers":{"href":null,"total":40742},"genres":["lo-fi beats"],"href":"https://api.spotify.com/v1/artists/55ZGP7wiI7sIfU36CTeBzT","id":"55ZGP7wiI7sIfU36CTeBzT","images":[{"height":640,"url":"https://i.scdn.co/image/4bb3b3e5da48963601b4fa364c640a3f11d9ce68","width":640},{"height":320,"url":"https://i.scdn.co/image/d457d85dd3845af574ad9d2e839300a467a19862","width":320},{"height":160,"url":"https://i.scdn.co/image/f7ffc5783cb6fba2ba7fe4ffd3d083b3179b5d07","width":160}],"name":"sad boy with a laptop","popularity":51,"type":"artist","uri":"spotify:artist:55ZGP7wiI7sIfU36CTeBzT"},{"external_urls":{"spotify":"https://open.spotify.com/artist/2R57sY41L9XvGPiIgHOaYq"},"followers":{"href":null,"total":1053884},"genres":["alternative metal","candy pop"],"href":"https://api.spotify.com/v1/artists/2R57sY41L9XvGPiIgHOaYq","id":"2R57sY41L9XvGPiIgHOaYq","images":[{"height":640,"url":"https://i.scdn.co/image/d6287f3462e601ba95253c9514cadf8b234cb4bf","width":640},{"height":320,"url":"https://i.scdn.co/image/7bac7dcf387a6dd5b14fa9f0e6b21963d017bef0","width":320},{"height":160,"url":"https://i.scdn.co/image/b02baac54e4aba8de9f51f38164204021c3f78bc","width":160}],"name":"The Pretty Reckless","popularity":69,"type":"artist","uri":"spotify:artist:2R57sY41L9XvGPiIgHOaYq"},{"external_urls":{"spotify":"https://open.spotify.com/artist/3Isy6kedDrgPYoTS1dazA9"},"followers":{"href":null,"total":3374739},"genres":["dance pop","dancehall","pop","pop dance","pop rap"],"href":"https://api.spotify.com/v1/artists/3Isy6kedDrgPYoTS1dazA9","id":"3Isy6kedDrgPYoTS1dazA9","images":[{"height":640,"url":"https://i.scdn.co/image/e15025ccdfab6e62b9c2b391e4e5f44bac36a3db","width":640},{"height":320,"url":"https://i.scdn.co/image/b4533be0e359e91e13bdf87667b107f4672472ad","width":320},{"height":160,"url":"https://i.scdn.co/image/69b7c0342aff7e1d662a1579507bbcef3a18e87a","width":160}],"name":"Sean Paul","popularity":84,"type":"artist","uri":"spotify:artist:3Isy6kedDrgPYoTS1dazA9"},{"external_urls":{"spotify":"https://open.spotify.com/artist/1W7FNibLa0O0b572tB2w7t"},"followers":{"href":null,"total":643923},"genres":["bedroom soul","pop"],"href":"https://api.spotify.com/v1/artists/1W7FNibLa0O0b572tB2w7t","id":"1W7FNibLa0O0b572tB2w7t","images":[{"height":640,"url":"https://i.scdn.co/image/ab6761610000e5eb247c7ce5862749b0cb7eddad","width":640},{"height":320,"url":"https://i.scdn.co/image/ab67616100005174247c7ce5862749b0cb7eddad","width":320},{"height":160,"url":"https://i.scdn.co/image/ab6761610000f178247c7ce5862749b0cb7eddad","width":160}],"name":"Pink Sweat$","popularity":81,"type":"artist","uri":"spotify:artist:1W7FNibLa0O0b572tB2w7t"}],"total":25,"limit":10,"offset":5,"href":"https://api.spotify.com/v1/me/top/artists?limit=10&offset=5","previous":null,"next":"https://api.spotify.com/v1/me/top/artists?limit=10&offset=15"}