{"items":[{"external_urls":{"spotify":"https://open.spotify.com/artist/6M2wZ9GZgrQXHCFfjv46we"},"followers":{"href":null,"total":23756330},"genres":["dance pop","pop","uk pop"],"href":"https://api.spotify.com/v1/artists/6M2wZ9GZgrQXHCFfjv46we","id":"6M2wZ9GZgrQXHCFfjv46we","images":[{"height":640,"url":"https://i.scdn.co/image/552c454001ba87ea580c1f084482991502562996","width":640},{"height":320,"url":"https://i.scdn.co/image/11c55d5d4dd71860f58c83fdb4217f32f22a0c7b","width":320},{"height":160,"url":"https://i.scdn.co/image/12c917fb893e9c2c37b37f093b30c024e7a76dd5","width":160}],"name":"Dua Lipa","popularity":95,"type":"artist","uri":"spotify:artist:6M2wZ9GZgrQXHCFfjv46we"},{"external_urls":{"spotify":"https://open.spotify.com/artist/06HL4z0CvFAxyc27GXpf02"},"followers":{"href":null,"total":38221230},"genres":["pop"],"href":"https://api.spotify.com/v1/artists/06HL4z0CvFAxyc27GXpf02","id":"06HL4z0CvFAxyc27GXpf02","images":[{"height":640,"url":"https://i.scdn.co/image/8389f45cac7a58e3ab67a3bdeb5b4a0f9d8f7919","width":640},{"height":320,"url":"https://i.scdn.co/image/ca417f738fca37ef08447d45f9c32e2650f48a86","width":320},{"height":160,"url":"https://i.scdn.co/image/02e96fdf26f6a3b1d435f163831ea50f7d2abb55","width":160}],"name":"Taylor Swift","popularity":97,"type":"artist","uri":"spotify:artist:06HL4z0CvFAxyc27GXpf02"},{"external_urls":{"spotify":"https://open.spotify.com/artist/1CoZyIx7UvdxT5c8UkMzHd"},"followers":{"href":null,"total":2031780},"genres":["dance pop","pop","uk contemporary r&b"],"href":"https://api.spotify.com/v1/artists/1CoZyIx7UvdxT5c8UkMzHd","id":"1CoZyIx7UvdxT5c8UkMzHd","images":[{"height":640,"url":"https://i.scdn.co/image/f60db6f9b7264b835c7de6cdea9ba53e19398b81","width":640},{"height":320,"url":"https://i.scdn.co/image/0bfa8ba50cb3a91cbfec40ef0abee0392220e0e2","width":320},{"height":160,"url":"https://i.scdn.co/image/742a58bf85e15b729e72aeefdf5a3023ab40cfb0","width":160}],"name":"Jorja Smith","popularity":79,"type":"artist","uri":"spotify:artist:1CoZyIx7UvdxT5c8UkMzHd"},{"external_urls":{"spotify":"https://open.spotify.com/artist/21TinSsF5ytwsfdyz5VSVS"},"followers":{"href":null,"total":864490},"genres":["alt z","indie cafe pop","indie pop","pop"],"href":"https://api.spotify.com/v1/artists/21TinSsF5ytwsfdyz5VSVS","id":"21TinSsF5ytwsfdyz5VSVS","images":[{"height":640,"url":"https://i.scdn.co/image/3abc2dccdb85591746e5b6e81a9d33ac360b6c18","width":640},{"height":320,"url":"https://i.scdn.co/image/60cbe8c69c9bef78fc2e60e2e928bc95241e302c","width":320},{"height":160,"url":"https://i.scdn.co/image/564281fc8f8cafc01ad996f0d1d16ba20004528a","width":160}],"name":"dodie","popularity":70,"type":"artist","uri":"spotify:artist:21TinSsF5ytwsfdyz5VSVS"},{"external_urls":{"spotify":"https://open.spotify.com/artist/39vA9YljbnOApXKniLWBZv"},"followers":{"href":null,"total":447808},"genres":["electropop","etherpop","indie folk","indie pop","indie rock"],"href":"https://api.spotify.com/v1/artists/39vA9YljbnOApXKniLWBZv","id":"39vA9YljbnOApXKniLWBZv","images":[{"height":640,"url":"https://i.scdn.co/image/ab6761610000e5eb47e842ea7b1035028949f562","width":640},{"height":320,"url":"https://i.scdn.co/image/ab6761610000517447e842ea7b1035028949f562","width":320},{"height":160,"url":"https://i.scdn.co/image/ab6761610000f17847e842ea7b1035028949f562","width":160}],"name":"Sylvan Esso","popularity":66,"type":"artist","uri":"spotify:artist:39vA9YljbnOApXKniLWBZv"},{"external_urls":{"spotify":"https://open.spotify.com/artist/3WrFJ7ztbogyGnTHbHJFl2"},"followers":{"href":null,"total":19066271},"genres":["beatlesque","british invasion","classic rock","merseybeat","psychedelic rock","rock"],"href":"https://api.spotify.com/v1/artists/3WrFJ7ztbogyGnTHbHJFl2","id":"3WrFJ7ztbogyGnTHbHJFl2","images":[{"height":640,"url":"https://i.scdn.co/image/ab6761610000e5eb9e4dcab5690e28275872906e","width":640},{"height":320,"url":"https://i.scdn.co/image/ab676161000051749e4dcab5690e28275872906e","width":320},{"height":160,"url":"https://i.scdn.co/image/ab6761610000f1789e4dcab5690e28275872906e","width":160}],"name":"The Beatles","popularity":89,"type":"artist","uri":"spotify:artist:3WrFJ7ztbogyGnTHbHJFl2"},{"external_urls":{"spotify":"https://open.spotify.com/artist/6f5yObGSpFj9eJL55GBzrb"},"followers":{"href":null,"total":23275},"genres":["australian indie","australian pop","vapor soul"],"href":"https://api.spotify.com/v1/artists/6f5yObGSpFj9eJL55GBzrb","id":"6f5yObGSpFj9eJL55GBzrb","images":[{"height":640,"url":"https://i.scdn.co/image/ab6761610000e5eb02cfbcb1812d4419876c40cb","width":640},{"height":320,"url":"https://i.scdn.co/image/ab6761610000517402cfbcb1812d4419876c40cb","width":320},{"height":160,"url":"https://i.scdn.co/image/ab6761610000f17802cfbcb1812d4419876c40cb","width":160}],"name":"LANKS","popularity":50,"type":"artist","uri":"spotify:artist:6f5yObGSpFj9eJL55GBzrb"},{"external_urls":{"spotify":"https://open.spotify.com/artist/0QWrMNukfcVOmgEU0FEDyD"},"followers":{"href":null,"total":391590},"genres":["indie soul","uk alternative pop"],"href":"https://api.spotify.com/v1/artists/0QWrMNukfcVOmgEU0FEDyD","id":"0QWrMNukfcVOmgEU0FEDyD","images":[{"height":640,"url":"https://i.scdn.co/image/ab6761610000e5eba633612204eff3251651a3bf","width":640},{"height":320,"url":"https://i.scdn.co/image/ab67616100005174a633612204eff3251651a3bf","width":320},{"height":160,"url":"https://i.scdn.co/image/ab6761610000f178a633612204eff3251651a3bf","width":160}],"name":"Jacob Collier","popularity":65,"type":"artist","uri":"spotify:artist:0QWrMNukfcVOmgEU0FEDyD"},{"external_urls":{"spotify":"https://open.spotify.com/artist/4dWtsQvuME6tCWFycaTvO7"},"followers":{"href":null,"total":38419},"genres":["alabama indie","indie cafe pop","indie folk","indiecoustica"],"href":"https://api.spotify.com/v1/artists/4dWtsQvuME6tCWFycaTvO7","id":"4dWtsQvuME6tCWFycaTvO7","images":[{"height":640,"url":"https://i.scdn.co/image/5e3b45d4341813bd56c3401bc411effab4eb04bd","width":640},{"height":320,"url":"https://i.scdn.co/image/460d2db3f498bb460ce85b196161733134fff2d6","width":320},{"height":160,"url":"https://i.scdn.co/image/2a52329fa98b5261089e0032cfbea42739c28f98","width":160}],"name":"The Brook & The Bluff","popularity":58,"type":"artist","uri":"spotify:artist:4dWtsQvuME6tCWFycaTvO7"},{"external_urls":{"spotify":"https://open.spotify.com/artist/5DD5GZd4ElmQTy9NleMvKJ"},"followers":{"href":null,"total":495797},"genres":["alt z","indie pop"],"href":"https://api.spotify.com/v1/artists/5DD5GZd4ElmQTy9NleMvKJ","id":"5DD5GZd4ElmQTy9NleMvKJ","images":[{"height":640,"url":"https://i.scdn.co/image/ab6761610000e5eb1265d94db18f3c42570d6079","width":640},{"height":320,"url":"https://i.scdn.co/image/ab676161000051741265d94db18f3c42570d6079","width":320},{"height":160,"url":"https://i.scdn.co/image/ab6761610000f1781265d94db18f3c42570d6079","width":160}],"name":"Tessa Violet","popularity":63,"type":"artist","uri":"spotify:artist:5DD5GZd4ElmQTy9NleMvKJ"},{"external_urls":{"spotify":"https://open.spotify.com/artist/0ZxZlO7oWCSYMXhehpyMvE"},"followers":{"href":null,"total":410147},"genres":["indie pop","indie poptimism","modern alternative rock","modern rock","pop"],"href":"https://api.spotify.com/v1/artists/0ZxZlO7oWCSYMXhehpyMvE","id":"0ZxZlO7oWCSYMXhehpyMvE","images":[{"height":640,"url":"https://i.scdn.co/image/6d9d1738e2a98425e408d2af6e4d7d73bcf83b35","width":640},{"height":320,"url":"https://i.scdn.co/image/8cdc4701bf10ca35ba7bf4753b34fee803e4e975","width":320},{"height":160,"url":"https://i.scdn.co/image/9aeba7fd8cdb34e7d9173d8e61db545676d17091","width":160}],"name":"COIN","popularity":72,"type":"artist","uri":"spotify:artist:0ZxZlO7oWCSYMXhehpyMvE"},{"external_urls":{"spotify":"https://open.spotify.com/artist/3KedxarmBCyFBevnqQHy3P"},"followers":{"href":null,"total":923076},"genres":["alt z","canadian contemporary r&b","canadian pop","dance pop","pop"],"href":"https://api.spotify.com/v1/artists/3KedxarmBCyFBevnqQHy3P","id":"3KedxarmBCyFBevnqQHy3P","images":[{"height":640,"url":"https://i.scdn.co/image/5c3ac07ff50cd4308c38059f5651cd4455c5d724","width":640},{"height":320,"url":"https://i.scdn.co/image/2406f296a94f8280a57e6be60bac3800066badaf","width":320},{"height":160,"url":"https://i.scdn.co/image/8e5b605bdd4fb056ecf1cf30f2d3446c3551d5db","width":160}],"name":"Jessie Reyez","popularity":75,"type":"artist","uri":"spotify:artist:3KedxarmBCyFBevnqQHy3P"},{"external_urls":{"spotify":"https://open.spotify.com/artist/4NZvixzsSefsNiIqXn0NDe"},"followers":{"href":null,"total":739234},"genres":["indie pop"],"href":"https://api.spotify.com/v1/artists/4NZvixzsSefsNiIqXn0NDe","id":"4NZvixzsSefsNiIqXn0NDe","images":[{"height":640,"url":"https://i.scdn.co/image/87254963154387dac4a8c88d39ebe082fedb13f5","width":640},{"height":320,"url":"https://i.scdn.co/image/586839921d7190d318e055a1eda3b83ebedda35d","width":320},{"height":160,"url":"https://i.scdn.co/image/151802f92cc9f0676a769c910e885be9b55c2c98","width":160}],"name":"Maggie Rogers","popularity":72,"type":"artist","uri":"spotify:artist:4NZvixzsSefsNiIqXn0NDe"},{"external_urls":{"spotify":"https://open.spotify.com/artist/2QoU3awHVdcHS8LrZEKvSM"},"followers":{"href":null,"total":580912},"genres":["alternative country","alternative rock","chicago indie","indie pop","indie rock","pop rock","rock","roots rock","stomp and holler"],"href":"https://api.spotify.com/v1/artists/2QoU3awHVdcHS8LrZEKvSM","id":"2QoU3awHVdcHS8LrZEKvSM","images":[{"height":640,"url":"https://i.scdn.co/image/26816116d2e836116ccf596a855160be5657d936","width":640},{"height":320,"url":"https://i.scdn.co/image/cdf5e817af10c070b8995fe27a778b3e2ddaa848","width":320},{"height":160,"url":"https://i.scdn.co/image/91c100ac2b95066501238763f823b80ab03a3776","width":160}],"name":"Wilco","popularity":67,"type":"artist","uri":"spotify:artist:2QoU3awHVdcHS8LrZEKvSM"},{"external_urls":{"spotify":"https://open.spotify.com/artist/6vWDO969PvNqNYHIOW5v0m"},"followers":{"href":null,"total":26827011},"genres":["dance pop","pop","post-teen pop","r&b"],"href":"https://api.spotify.com/v1/artists/6vWDO969PvNqNYHIOW5v0m","id":"6vWDO969PvNqNYHIOW5v0m","images":[{"height":640,"url":"https://i.scdn.co/image/ad8b0e5a18a5a443a2678768bd73f59833941abc","width":640},{"height":320,"url":"https://i.scdn.co/image/802895be7bc5339087ba36194b0b7307c467df96","width":320},{"height":160,"url":"https://i.scdn.co/image/a932ba0a31bd2807fe76c77b64c680bec2f3d14a","width":160}],"name":"Beyoncé","popularity":89,"type":"artist","uri":"spotify:artist:6vWDO969PvNqNYHIOW5v0m"},{"external_urls":{"spotify":"https://open.spotify.com/artist/69GGBxA162lTqCwzJG5jLp"},"followers":{"href":null,"total":17664042},"genres":["dance pop","edm","electropop","pop","pop dance","tropical house"],"href":"https://api.spotify.com/v1/artists/69GGBxA162lTqCwzJG5jLp","id":"69GGBxA162lTqCwzJG5jLp","images":[{"height":640,"url":"https://i.scdn.co/image/960547a625bc2eb742bb3dd170cbc049d2e94cf9","width":640},{"height":320,"url":"https://i.scdn.co/image/9da714082fe9696529abadc8e4095451221b4483","width":320},{"height":160,"url":"https://i.scdn.co/image/caca64268346846a0753ca894b6ff92bb4dfb864","width":160}],"name":"The Chainsmokers","popularity":86,"type":"artist","uri":"spotify:artist:69GGBxA162lTqCwzJG5jLp"},{"external_urls":{"spotify":"https://open.spotify.com/artist/3DiDSECUqqY1AuBP8qtaIa"},"followers":{"href":null,"total":8516171},"genres":["hip pop","neo soul","pop","r&b","urban contemporary"],"href":"https://api.spotify.com/v1/artists/3DiDSECUqqY1AuBP8qtaIa","id":"3DiDSECUqqY1AuBP8qtaIa","images":[{"height":640,"url":"https://i.scdn.co/image/f603978d2974c3132fc13202f8555305dbd71710","width":640},{"height":320,"url":"https://i.scdn.co/image/a1f6edee42cee2dbef24aec64068efe51d4d0fc6","width":320},{"height":160,"url":"https://i.scdn.co/image/6d7dc52fb3fe43800cf45bfb6afec5d2b338c17b","width":160}],"name":"Alicia Keys","popularity":83,"type":"artist","uri":"spotify:artist:3DiDSECUqqY1AuBP8qtaIa"},{"external_urls":{"spotify":"https://open.spotify.com/artist/3MNLhvqJkWsO6tcjY9ps62"},"followers":{"href":null,"total":46169},"genres":["alt z","indie pop","nyc pop"],"href":"https://api.spotify.com/v1/artists/3MNLhvqJkWsO6tcjY9ps62","id":"3MNLhvqJkWsO6tcjY9ps62","images":[{"height":640,"url":"https://i.scdn.co/image/751730f6596567198164052573670cc54b28e0ac","width":640},{"height":320,"url":"https://i.scdn.co/image/a5753d27e31723ee9147fa6059d4af9885d9062e","width":320},{"height":160,"url":"https://i.scdn.co/image/2edb38732c14db4075768f8209c92462362ce8b6","width":160}],"name":"Maude Latour","popularity":57,"type":"artist","uri":"spotify:artist:3MNLhvqJkWsO6tcjY9ps62"},{"external_urls":{"spotify":"https://open.spotify.com/artist/0Cp8WN4V8Tu4QJQwCN5Md4"},"followers":{"href":null,"total":601494},"genres":["alt z","nz pop","pop"],"href":"https://api.spotify.com/v1/artists/0Cp8WN4V8Tu4QJQwCN5Md4","id":"0Cp8WN4V8Tu4QJQwCN5Md4","images":[{"height":640,"url":"https://i.scdn.co/image/cf1265cb1c2c35d253cbbac9b1489bc181322ed3","width":640},{"height":320,"url":"https://i.scdn.co/image/95e5164d793a587bbd52217612342b6cce8da94d","width":320},{"height":160,"url":"https://i.scdn.co/image/0cbb555517bc8c6f5cb273ce80c55c421799c2c3","width":160}],"name":"BENEE","popularity":75,"type":"artist","uri":"spotify:artist:0Cp8WN4V8Tu4QJQwCN5Md4"},{"external_urls":{"spotify":"https://open.spotify.com/artist/3nFkdlSjzX9mRTtwJOzDYB"},"followers":{"href":null,"total":6085832},"genres":["east coast hip hop","hip hop","pop rap","rap"],"href":"https://api.spotify.com/v1/artists/3nFkdlSjzX9mRTtwJOzDYB","id":"3nFkdlSjzX9mRTtwJOzDYB","images":[{"height":640,"url":"https://i.scdn.co/image/4912d27d6b01dd790313d8ef76586be6b100550f","width":640},{"height":320,"url":"https://i.scdn.co/image/027c5605d895158497ff377d92d69fe89dba1730","width":320},{"height":160,"url":"https://i.scdn.co/image/1420226e471d0e56ae4de7cb28ba2eb4de0a29ce","width":160}],"name":"JAY-Z","popularity":87,"type":"artist","uri":"spotify:artist:3nFkdlSjzX9mRTtwJOzDYB"}],"total":50,"limit":20,"offset":0,"previous":null,"href":"https://api.spotify.com/v1/me/top/artists","next":"https://api.spotify.com/v1/me/top/artists?limit=20&offset=20"}